{
  "Paulina": {
    "dob": 1815,
    "children": {
      "Juan": {
        "dob": 1850,
        "children": {
          "Mathew": {
            "dob": 1867
          }
        }
      },
      "Karina": {
        "dob": 1840
      }
    }
  },
  "Brandon": {
    "dob": 1820
  },
  "Raul": {
    "dob": 1825,
    "children": {
      "Pedro": {
        "dob": 1861
      }
    }
  }
}